…
    ## $record_1
    ## # A tibble: 6 x 10
    ##   timestamp           position_lat position_long distance enhanced_speed heart_rate cadence temperature cycles fractional_cadence
    ##   <dttm>                     <dbl>         <dbl>    <dbl>          <dbl>      <int>   <int>       <int>  <int>              <dbl>
    ## 1 2020-08-28 10:03:37         46.8          9.85     0             0             95       0          23      1                  0
    ## 2 2020-08-28 10:03:38         46.8          9.85     0             0             95       0          23      1                  0
    ## 3 2020-08-28 10:03:39         46.8          9.85     0             0             94       0          23      1                  0
    ## 4 2020-08-28 10:03:40         46.8          9.85     0             0             95       0          23      1                  0
    ## 5 2020-08-28 10:03:41         46.8          9.85     0.01          0.009         95       0          23      1                  0
    ## 6 2020-08-28 10:03:42         46.8          9.85     0.03          0.021         96       0          23      1                  0
    ## 
    ## $record_2
    ## # A tibble: 651 x 10
    ##    timestamp           position_lat position_long distance enhanced_speed heart_rate cadence temperature cycles fractional_cadence
    ##    <dttm>                     <dbl>         <dbl>    <dbl>          <dbl>      <int>   <int>       <int>  <int>              <dbl>
    ##  1 2020-08-28 10:03:43         46.8          9.85     0.1           0.069         96       0          23      1                  0
    ##  2 2020-08-28 10:03:44         46.8          9.85     0.19          0.087         97       0          22      1                  0
    ##  3 2020-08-28 10:03:45         46.8          9.85     0.3           0.111         97       0          22      1                  0
    ##  4 2020-08-28 10:03:46         46.8          9.85     0.44          0.143         97       0          22      1                  0
    ##  5 2020-08-28 10:03:47         46.8          9.85     0.6           0.164         99       0          22      1                  0
    ##  6 2020-08-28 10:03:48         46.8          9.85     0.8           0.199        100       0          21      1                  0
    ##  7 2020-08-28 10:03:49         46.8          9.85     1.02          0.217        100       0          21      1                  0
    ##  8 2020-08-28 10:03:50         46.8          9.85     1.3           0.28         103       0          21      2                  0
    ##  9 2020-08-28 10:03:51         46.8          9.85     1.6           0.301        104       0          21      2                  0
    ## 10 2020-08-28 10:03:52         46.8          9.85     1.92          0.313        106      34          20      3                  0
    ## # … with 641 more rows
    ## 
    ## $record_3
…
``` r
library(dplyr)

edge530_allrecords <- records(edge530) %>% 
  bind_rows() %>% 
  arrange(timestamp) 

edge530_allrecords
```

    ## # A tibble: 8,627 x 23
    ##    timestamp           position_lat position_long distance accumulated_pow… altitude speed power heart_rate temperature left_right_bala… left_torque_eff… right_torque_ef…
    ##    <dttm>                     <dbl>         <dbl>    <dbl>            <dbl>    <dbl> <dbl> <int>      <int>       <int>            <int>            <dbl>            <dbl>
    ##  1 2020-07-15 12:31:43         42.9      -0.00165     0                  NA     731.  1.26 65535        255          19               NA              NA               NA 
    ##  2 2020-07-15 12:31:44         42.9      -0.00164     1.35               NA     731.  1.35   142        255          19               NA              NA               NA 
    ##  3 2020-07-15 12:31:45         42.9      -0.00162     2.82               NA     731.  1.46   142        255          19               NA              NA               NA 
    ##  4 2020-07-15 12:31:46         42.9      -0.00160     4.55              425     731.  1.73   142        255          19               NA              NA               NA 
    ##  5 2020-07-15 12:31:47         42.9      -0.00158     6.65              595     731.  2.10   170        255          19              156             128.             128.
    ##  6 2020-07-15 12:31:48         42.9      -0.00154     9.81              851     731.  3.17   256        255          19              181             128.             128.
    ##  7 2020-07-15 12:31:49         42.9      -0.00149    14.0              1093     731.  4.16   242        255          19              183             128.             128.
    ##  8 2020-07-15 12:31:50         42.9      -0.00144    18.3              1093     731.  4.32     0        255          19              182             128.             128.
    ##  9 2020-07-15 12:31:51         42.9      -0.00139    22.3              1093     731.  4.02     0        255          19              182             128.             128.
    ## 10 2020-07-15 12:31:52         42.9      -0.00135    25.8              1093     731.  3.49     0        255          19               NA              NA               NA 
    ## # … with 8,617 more rows, and 10 more variables: left_pedal_smoothness <dbl>, right_pedal_smoothness <dbl>, cadence <int>, fractional_cadence <dbl>, left_pco <int>,
    ## #   right_pco <int>, left_power_phase <list>, left_power_phase_peak <list>, right_power_phase <list>, right_power_phase_peak <list>
…
