Reading FIT files • FITfileR
…
## $record_1
## # A tibble: 6 × 10
##   timestamp           position_lat position_long distance enhanced_speed
##   <dttm>                     <dbl>         <dbl>    <dbl>          <dbl>
## 1 2020-08-28 10:03:37         46.8          9.85     0             0    
## 2 2020-08-28 10:03:38         46.8          9.85     0             0    
## 3 2020-08-28 10:03:39         46.8          9.85     0             0    
## 4 2020-08-28 10:03:40         46.8          9.85     0             0    
## 5 2020-08-28 10:03:41         46.8          9.85     0.01          0.009
## 6 2020-08-28 10:03:42         46.8          9.85     0.03          0.021
## # … with 5 more variables: heart_rate <int>, cadence <int>, temperature <int>,
## #   cycles <int>, fractional_cadence <dbl>
## 
## $record_2
## # A tibble: 651 × 10
##    timestamp           position_lat position_long distance enhanced_speed
##    <dttm>                     <dbl>         <dbl>    <dbl>          <dbl>
##  1 2020-08-28 10:03:43         46.8          9.85     0.1           0.069
##  2 2020-08-28 10:03:44         46.8          9.85     0.19          0.087
##  3 2020-08-28 10:03:45         46.8          9.85     0.3           0.111
##  4 2020-08-28 10:03:46         46.8          9.85     0.44          0.143
##  5 2020-08-28 10:03:47         46.8          9.85     0.6           0.164
##  6 2020-08-28 10:03:48         46.8          9.85     0.8           0.199
##  7 2020-08-28 10:03:49         46.8          9.85     1.02          0.217
##  8 2020-08-28 10:03:50         46.8          9.85     1.3           0.28 
##  9 2020-08-28 10:03:51         46.8          9.85     1.6           0.301
## 10 2020-08-28 10:03:52         46.8          9.85     1.92          0.313
## # … with 641 more rows, and 5 more variables: heart_rate <int>, cadence <int>,
## #   temperature <int>, cycles <int>, fractional_cadence <dbl>
## 
## $record_3
…
## record_1 record_2 record_3 record_4 record_5 record_6 record_7 
##      197        7        9     7063     1326       22        3

We probably don’t want to discard either of these, as even the smaller one represents over 20 minutes of data recording. We can use dplyr to try and merge all the messages together into a single tibble regardless of their definition. Any entries that are missing in certain messages will be filled with NA. Note: this approach of binding rows does not always work, as sometimes the data types within a column may change between messages, but it is more often successful.

library(dplyr)

edge530_allrecords <- records(edge530) %>% 
  bind_rows() %>% 
  arrange(timestamp) 

edge530_allrecords

## # A tibble: 8,627 × 23
##    timestamp           position_lat position_long distance accumulated_power
##    <dttm>                     <dbl>         <dbl>    <dbl>             <dbl>
##  1 2020-07-15 12:31:43         42.9      -0.00165     0                   NA
##  2 2020-07-15 12:31:44         42.9      -0.00164     1.35                NA
##  3 2020-07-15 12:31:45         42.9      -0.00162     2.82                NA
##  4 2020-07-15 12:31:46         42.9      -0.00160     4.55               425
##  5 2020-07-15 12:31:47         42.9      -0.00158     6.65               595
##  6 2020-07-15 12:31:48         42.9      -0.00154     9.81               851
##  7 2020-07-15 12:31:49         42.9      -0.00149    14.0               1093
##  8 2020-07-15 12:31:50         42.9      -0.00144    18.3               1093
##  9 2020-07-15 12:31:51         42.9      -0.00139    22.3               1093
## 10 2020-07-15 12:31:52         42.9      -0.00135    25.8               1093
## # … with 8,617 more rows, and 18 more variables: altitude <dbl>, speed <dbl>,
## #   power <int>, heart_rate <int>, temperature <int>, left_right_balance <int>,
## #   left_torque_effectiveness <dbl>, right_torque_effectiveness <dbl>,
## #   left_pedal_smoothness <dbl>, right_pedal_smoothness <dbl>, cadence <int>,
## #   fractional_cadence <dbl>, left_pco <int>, right_pco <int>,
## #   left_power_phase <list>, left_power_phase_peak <list>,
## #   right_power_phase <list>, right_power_phase_peak <list>
…
